
{
    "startingMondayDay":"01",
    "startingMondayMonth":"05",
    "endingFridayDay":"12",
    "endingFridayMonth":"05",
    "schedule":[
        {
            "type":"Lecture",
            "date":"2017-05-09",
            "title":"Design Principles",
            "topic":"OOP",
            "link":"www.google.com",
            "criteria":"",
            "time":"5:50pm"
        },
        {
            "type":"HWs",
            "date":"2017-05-10",
            "title":"HW1",
            "topic":"Design Document",
            "link":"www.google.com",
            "criteria":"www.google.com",
            "time":"5:50pm"
        }
    ]
}