
{
    "startHour":"9",
    "endHour":"23",
    "undergrad_tas":[
        {
            "name":"Aaron Chiang",
            "email":"a@b.com"
        }
    ],
    "officeHours":[
        {
            "day":"MONDAY",
            "time":"9_00am",
            "name":"Aaron Chiang"
        },
        {
            "day":"TUESDAY",
            "time":"9_00am",
            "name":"Aaron Chiang"
        },
        {
            "day":"WEDNESDAY",
            "time":"9_00am",
            "name":"Aaron Chiang"
        },
        {
            "day":"THURSDAY",
            "time":"9_00am",
            "name":"Aaron Chiang"
        },
        {
            "day":"FRIDAY",
            "time":"9_00am",
            "name":"Aaron Chiang"
        }
    ]
}