
{
    "recitations":[
        {
            "section":"R05",
            "instructor":"Banerjee",
            "day_time":"Monday, 5:50pm",
            "location":"Old Computer Science",
            "ta_1":"Aaron Chiang",
            "ta_2":"Aaron Chiang"
        }
    ]
}